<?xml version="1.0" encoding="utf-8"?>
<!-- Generator: Adobe Illustrator 21.1.0, SVG Export Plug-In . SVG Version: 6.00 Build 0)  -->
<svg version="1.1" id="Layer_1" xmlns="http://www.w3.org/2000/svg" xmlns:xlink="http://www.w3.org/1999/xlink" x="0px" y="0px"
	 viewBox="0 0 738.6 572.2" style="enable-background:new 0 0 738.6 572.2;" xml:space="preserve">
<style type="text/css">
	.st0{fill:#FFFFFF;}
</style>
<g>
	<g transform="translate(600 600) scale(0.69 0.69) rotate(0) translate(-600 -600)">
		<title>Ship</title>
		<polygon class="st0" points="432.1,-150 432.1,-269.6 216.4,-269.6 216.4,-150 322.4,-150 		"/>
		<rect x="207.1" y="35.1" class="st0" width="215.6" height="119.5"/>
		<path class="st0" d="M455.5,154.7h65.2l81.8-88.5c3.1-3.4,7.5-5.3,12-5.3h56.5V35.1H455.5V154.7z"/>
		<rect x="89.9" y="-117.2" class="st0" width="215.6" height="119.5"/>
		<rect x="338.3" y="-117.2" class="st0" width="215.6" height="119.5"/>
		<rect x="-200.7" y="-68" class="st0" width="79.7" height="128.9"/>
		<path class="st0" d="M27.1,66.7l74.8,88h72.4V35.1H-41.4v25.8h56C19.4,60.9,24,63,27.1,66.7z"/>
		<rect x="-179.6" y="-133.6" class="st0" width="35.2" height="32.8"/>
		<path class="st0" d="M779.2,433.1c-38.8,0-57.1-9.9-78.2-21.4c-21.9-11.9-46.7-25.4-93.9-25.4s-72,13.5-93.9,25.4
			c-21.1,11.5-39.3,21.4-78.2,21.4s-57.1-9.9-78.2-21.4c-21.9-11.9-46.7-25.4-93.9-25.4s-72,13.5-93.9,25.4
			c-21.1,11.5-39.3,21.4-78.2,21.4s-57.1-9.9-78.2-21.4c-21.9-11.9-46.7-25.4-93.9-25.4s-72,13.5-93.9,25.4
			c-21.1,11.5-39.3,21.4-78.2,21.4c-9.1,0-16.4,7.3-16.4,16.4c0,9.1,7.3,16.4,16.4,16.4c47.2,0,72-13.5,93.9-25.4
			c21.1-11.5,39.3-21.4,78.2-21.4S-24,429-2.9,440.5C19,452.4,43.8,465.9,91,465.9s72-13.5,93.9-25.4c21.1-11.5,39.3-21.4,78.2-21.4
			s57.1,9.9,78.2,21.4c21.9,11.9,46.7,25.4,93.9,25.4s72-13.5,93.9-25.4c21.1-11.5,39.3-21.4,78.2-21.4c38.8,0,57.1,9.9,78.2,21.4
			c21.9,11.9,46.7,25.4,93.9,25.4c9.1,0,16.4-7.3,16.4-16.4C795.6,440.5,788.3,433.1,779.2,433.1L779.2,433.1z"/>
		<path class="st0" d="M779.2,526.9c-38.8,0-57.1-9.9-78.2-21.4c-21.9-11.9-46.7-25.4-93.9-25.4s-72,13.5-93.9,25.4
			c-21.1,11.5-39.3,21.4-78.2,21.4s-57.1-9.9-78.2-21.4c-21.9-11.9-46.7-25.4-93.9-25.4s-72,13.5-93.9,25.4
			c-21.1,11.5-39.3,21.4-78.2,21.4s-57.1-9.9-78.2-21.4C-9.1,493.5-33.9,480-81.1,480s-72,13.5-93.9,25.4
			c-21.1,11.5-39.3,21.4-78.2,21.4c-9.1,0-16.4,7.3-16.4,16.4c0,9.1,7.3,16.4,16.4,16.4c47.2,0,72-13.5,93.9-25.4
			c21.1-11.5,39.3-21.4,78.2-21.4s57.1,9.9,78.2,21.4C19,546.2,43.8,559.7,91,559.7s72-13.5,93.9-25.4
			c21.1-11.5,39.3-21.4,78.2-21.4s57.1,9.9,78.2,21.4c21.9,11.9,46.7,25.4,93.9,25.4s72-13.5,93.9-25.4
			c21.1-11.5,39.3-21.4,78.2-21.4c38.8,0,57.1,9.9,78.2,21.4c21.9,11.9,46.7,25.4,93.9,25.4c9.1,0,16.4-7.3,16.4-16.4
			C795.6,534.2,788.3,526.9,779.2,526.9L779.2,526.9z"/>
		<path class="st0" d="M621.8,93.7l-81.8,88.5c-3.1,3.4-7.5,5.3-12,5.3H94.3c-4.8,0-9.4-2.1-12.5-5.8L7,93.7h-260.4l78.6,221.5
			c-0.1,0-0.2,0.2-0.3,0.2c-21.1,11.5-39.3,21.5-78.2,21.5c-9.1,0-16.4,7.4-16.4,16.4c0,9.1,7.4,16.4,16.4,16.4
			c47.2,0,72-13.5,93.9-25.4c21.1-11.5,39.3-21.4,78.2-21.4s57.1,9.9,78.2,21.4C19,356.3,43.8,369.8,91,369.8s72-13.5,93.9-25.4
			c21.1-11.5,39.3-21.4,78.2-21.4c38.8,0,57.1,9.9,78.2,21.4c21.9,11.9,46.7,25.4,93.9,25.4s72-13.5,93.9-25.4
			c21.1-11.5,39.3-21.4,78.2-21.4s57.1,9.9,78.2,21.4c21.9,11.9,46.7,25.4,93.9,25.4c9.1,0,16.4-7.3,16.4-16.4
			c0-9.1-7.3-16.4-16.4-16.4c-38.1,0-56.4-9.8-77-21l98.6-222.3H621.8z"/>
	</g>
</g>
</svg>
