<?xml version="1.0" encoding="utf-8"?>
<!-- Generator: Adobe Illustrator 21.1.0, SVG Export Plug-In . SVG Version: 6.00 Build 0)  -->
<svg version="1.1" id="Layer_1" xmlns="http://www.w3.org/2000/svg" xmlns:xlink="http://www.w3.org/1999/xlink" x="0px" y="0px"
	 viewBox="0 0 436.5 187.9" style="enable-background:new 0 0 436.5 187.9;" xml:space="preserve">
<style type="text/css">
	.st0{opacity:0.7;enable-background:new    ;}
	.st1{opacity:0.1;enable-background:new    ;}
</style>
<title>Group</title>
<desc>Created with Sketch.</desc>
<g id="Web">
	<g id="_x31_-Login" transform="translate(-515.000000, -132.000000)">
		<g id="Bitmap" transform="translate(0.000000, 78.000000)">
			<g id="Group" transform="translate(515.000000, 54.000000)">
				<path id="Rectangle" class="st0" d="M3.9,0l429.6,51c1.7,0.2,3.1,1.7,3.1,3.4v105.3c0,1.8-1.4,3.3-3.3,3.5L26.1,187.9
					c-1.8,0.1-3.4-1.2-3.6-3L0,3.9C-0.2,2,1.1,0.3,3,0C3.3,0,3.6,0,3.9,0z"/>
				<path id="Black-Rectangle" class="st1" d="M3.9,0l429.6,51c1.7,0.2,3.1,1.7,3.1,3.4v105.3c0,1.8-1.4,3.3-3.3,3.5L26.1,187.9
					c-1.8,0.1-3.4-1.2-3.6-3L0,3.9C-0.2,2,1.1,0.3,3,0C3.3,0,3.6,0,3.9,0z"/>
			</g>
		</g>
	</g>
</g>
</svg>
