<svg xmlns="http://www.w3.org/2000/svg" width="13" height="13" viewBox="0 0 13 13">
  <path id="search" d="M15.981,15.3,12.348,11.65a5.293,5.293,0,1,0-.7.7L15.3,15.981ZM3.952,8.282a4.33,4.33,0,1,1,4.33,4.33,4.33,4.33,0,0,1-4.33-4.33Z" transform="translate(-2.981 -2.981)"/>
</svg>
