<?xml version="1.0" encoding="utf-8"?>
<!-- Generator: Adobe Illustrator 21.1.0, SVG Export Plug-In . SVG Version: 6.00 Build 0)  -->
<svg version="1.1" id="Layer_1" xmlns="http://www.w3.org/2000/svg" xmlns:xlink="http://www.w3.org/1999/xlink" x="0px" y="0px"
	 viewBox="0 0 16 16" style="enable-background:new 0 0 16 16;" xml:space="preserve">
<style type="text/css">
	.st0{fill:#FFFFFF;fill-opacity:9.590800e-02;stroke:#016799;stroke-width:5;}
</style>
<title>Starting Point@1x</title>
<desc>Created with Sketch.</desc>
<g id="Final">
	<g id="_x31_0-Find-a-Route" transform="translate(-334.000000, -616.000000)">
		<g id="Group-5" transform="translate(334.000000, 608.000000)">
			<path id="Starting-Point" class="st0" d="M8,10.5L8,10.5c3,0,5.5,2.5,5.5,5.5l0,0c0,3-2.5,5.5-5.5,5.5l0,0c-3,0-5.5-2.5-5.5-5.5
				l0,0C2.5,13,5,10.5,8,10.5z"/>
		</g>
	</g>
</g>
</svg>
