<?xml version="1.0" encoding="UTF-8"?>
<svg width="32px" height="28px" viewBox="0 0 32 28" version="1.1" xmlns="http://www.w3.org/2000/svg" xmlns:xlink="http://www.w3.org/1999/xlink">
    <!-- Generator: Sketch 53.2 (72643) - https://sketchapp.com -->
    <title>Look up Inland Rates Selected</title>
    <desc>Created with Sketch.</desc>
    <defs>
        <circle id="path-1" cx="25.1470588" cy="4.85294118" r="4.85294118"></circle>
    </defs>
    <g id="Web" stroke="none" stroke-width="1" fill="none" fill-rule="evenodd">
        <g id="11-Find-a-Route" transform="translate(-45.000000, -448.000000)">
            <g id="Look-up-Inland-Rates-Selected" transform="translate(45.000000, 450.000000)">
                <path d="M25.6985294,3.59421569 L0.68627451,3.59421569 C0.307254902,3.59421569 -1.13686838e-12,3.90147059 -1.13686838e-12,4.2804902 L-1.13686838e-12,18.575 C-1.13686838e-12,18.9540196 0.307254902,19.2612745 0.68627451,19.2612745 L25.6985294,19.2612745 C26.077549,19.2612745 26.3848039,18.9540196 26.3848039,18.575 L26.3848039,4.2804902 C26.3848039,3.90137255 26.077549,3.59421569 25.6985294,3.59421569 Z M25.0122549,17.8886275 L1.37254902,17.8886275 L1.37254902,4.96676471 L25.0122549,4.96676471 L25.0122549,17.8886275 Z" id="Shape" fill="#016799" fill-rule="nonzero"></path>
                <path d="M4.06931373,10.0941176 L22.3154902,10.0941176 C22.6945098,10.0941176 23.0017647,9.78686275 23.0017647,9.40784314 C23.0017647,9.02882353 22.6945098,8.72156863 22.3154902,8.72156863 L4.06931373,8.72156863 C3.69029412,8.72156863 3.38303922,9.02882353 3.38303922,9.40784314 C3.38303922,9.78686275 3.69029412,10.0941176 4.06931373,10.0941176 Z" id="Path" fill="#016799" fill-rule="nonzero"></path>
                <path d="M4.06931373,12.7406863 L22.3154902,12.7406863 C22.6945098,12.7406863 23.0017647,12.4334314 23.0017647,12.0544118 C23.0017647,11.6753922 22.6945098,11.3681373 22.3154902,11.3681373 L4.06931373,11.3681373 C3.69029412,11.3681373 3.38303922,11.6753922 3.38303922,12.0544118 C3.38303922,12.4334314 3.69029412,12.7406863 4.06931373,12.7406863 Z" id="Path" fill="#016799" fill-rule="nonzero"></path>
                <path d="M22.4682353,14.1030392 L18.8504902,14.1030392 C18.4714706,14.1030392 18.1642157,14.4102941 18.1642157,14.7893137 C18.1642157,15.1683333 18.4714706,15.4755882 18.8504902,15.4755882 L22.4682353,15.4755882 C22.8472549,15.4755882 23.1545098,15.1683333 23.1545098,14.7893137 C23.1545098,14.4102941 22.8472549,14.1030392 22.4682353,14.1030392 Z" id="Path" fill="#016799" fill-rule="nonzero"></path>
                <g id="Oval">
                    <use fill="#FFFFFF" fill-rule="evenodd" xlink:href="#path-1"></use>
                    <circle stroke="#FFFFFF" stroke-width="2" cx="25.1470588" cy="4.85294118" r="5.85294118"></circle>
                    <use stroke="#016799" stroke-width="1.5" xlink:href="#path-1"></use>
                </g>
                <text id="$" font-family="HelveticaNeue-Bold, Helvetica Neue" font-size="6" font-weight="bold" fill="#016799">
                    <tspan x="23.7352941" y="7.08823529">$</tspan>
                </text>
                <text id="INLAND" font-family="HelveticaNeue-Bold, Helvetica Neue" font-size="6" font-weight="bold" fill="#016799">
                    <tspan x="1.96774194" y="25.5141452">INLAND</tspan>
                </text>
            </g>
        </g>
    </g>
</svg>