<?xml version="1.0" encoding="UTF-8"?>
<svg width="24px" height="29px" viewBox="0 0 24 29" version="1.1" xmlns="http://www.w3.org/2000/svg" xmlns:xlink="http://www.w3.org/1999/xlink">
    <!-- Generator: Sketch 53.2 (72643) - https://sketchapp.com -->
    <title>My Documents Unselected</title>
    <desc>Created with Sketch.</desc>
    <g id="Web" stroke="none" stroke-width="1" fill="none" fill-rule="evenodd">
        <g id="11-Find-a-Route" transform="translate(-27.000000, -556.000000)" fill="#1A1A1A" fill-rule="nonzero">
            <g id="My-Documents-Unselected" transform="translate(27.000000, 556.000000)">
                <path d="M21.9084356,0 L6.02091089,0 C4.88994059,0 3.96956436,0.920673267 3.96956436,2.05134653 L3.96956436,3.36142574 L2.10213861,3.36142574 C0.971168317,3.36142574 0.0508514851,4.28209901 0.0508514851,5.41277228 L0.0508514851,26.7117624 C0.0508514851,27.8424356 0.971168317,28.7631089 2.10213861,28.7631089 L17.990198,28.7631089 C19.1212277,28.7631089 20.0415446,27.8424356 20.0415446,26.7117624 L20.0415446,25.4016832 L21.9084356,25.4016832 C23.0395842,25.4016832 23.9597822,24.4810099 23.9597822,23.350396 L23.9597822,2.05134653 C23.9597822,0.920673267 23.0395842,0 21.9084356,0 Z M18.4005743,26.7117624 C18.4005743,26.9377426 18.2161188,27.1220792 17.990198,27.1220792 L2.10213861,27.1220792 C1.87627723,27.1220792 1.69182178,26.9376832 1.69182178,26.7117624 L1.69182178,5.41277228 C1.69182178,5.18661386 1.87627723,5.00245545 2.10213861,5.00245545 L3.96956436,5.00245545 L3.96956436,23.3503366 C3.96956436,24.4809505 4.88994059,25.4016238 6.02091089,25.4016238 L18.4005743,25.4016238 L18.4005743,26.7117624 L18.4005743,26.7117624 Z M22.3188119,23.350396 C22.3188119,23.5763168 22.1347723,23.7607129 21.9084356,23.7607129 L6.02091089,23.7607129 C5.79451485,23.7607129 5.61065347,23.5763168 5.61065347,23.350396 L5.61065347,2.05134653 C5.61065347,1.82524752 5.79457426,1.6410297 6.02091089,1.6410297 L21.9083762,1.6410297 C22.1347723,1.6410297 22.3187525,1.82530693 22.3187525,2.05134653 L22.3187525,23.350396 L22.3188119,23.350396 Z" id="Shape"></path>
                <path d="M19.9817822,5.09619802 L7.94762376,5.09619802 C7.49447525,5.09619802 7.1270495,5.46392079 7.1270495,5.91665347 C7.1270495,6.37027723 7.49453465,6.73722772 7.94762376,6.73722772 L19.9816634,6.73722772 C20.4348713,6.73722772 20.8021782,6.37021782 20.8021782,5.91665347 C20.802297,5.4639802 20.4348713,5.09619802 19.9817822,5.09619802 Z" id="Path"></path>
                <path d="M19.9817822,9.00172277 L7.94762376,9.00172277 C7.49447525,9.00172277 7.1270495,9.36932673 7.1270495,9.82217822 C7.1270495,10.2756832 7.49453465,10.6427525 7.94762376,10.6427525 L19.9816634,10.6427525 C20.4348713,10.6427525 20.8021782,10.2756238 20.8021782,9.82217822 C20.802297,9.36938614 20.4348713,9.00172277 19.9817822,9.00172277 Z" id="Path"></path>
                <path d="M15.9817822,12.9071287 L7.94762376,12.9071287 C7.49447525,12.9071287 7.1270495,13.2749109 7.1270495,13.7277624 C7.1270495,14.1812079 7.49453465,14.5482178 7.94762376,14.5482178 L15.9816634,14.5482178 C16.4348713,14.5482178 16.8021782,14.1812079 16.8021782,13.7277624 C16.802297,13.2749109 16.4348713,12.9071287 15.9817822,12.9071287 Z" id="Path"></path>
                <path d="M12.9817822,16.8127129 L7.94762376,16.8127129 C7.49447525,16.8127129 7.1270495,17.180495 7.1270495,17.6331683 C7.1270495,18.0869109 7.49453465,18.4537426 7.94762376,18.4537426 L12.9816634,18.4537426 C13.4348713,18.4537426 13.8021782,18.0867921 13.8021782,17.6331683 C13.802297,17.180495 13.4348713,16.8127129 12.9817822,16.8127129 Z" id="Path"></path>
            </g>
        </g>
    </g>
</svg>