<?xml version="1.0" encoding="UTF-8"?>
<svg width="25px" height="24px" viewBox="0 0 25 24" version="1.1" xmlns="http://www.w3.org/2000/svg" xmlns:xlink="http://www.w3.org/1999/xlink">
    <!-- Generator: Sketch 53.2 (72643) - https://sketchapp.com -->
    <title>Request a Quote Unselected</title>
    <desc>Created with Sketch.</desc>
    <g id="Web" stroke="none" stroke-width="1" fill="none" fill-rule="evenodd">
        <g id="11-Find-a-Route" transform="translate(-27.000000, -180.000000)" fill="#1A1A1A" fill-rule="nonzero">
            <g id="Request-a-Quote-Unselected" transform="translate(27.000000, 180.000000)">
                <path d="M15.8264887,12.664271 C15.8264887,12.2895277 15.5184805,11.976386 15.1386037,11.976386 L3.58829569,11.976386 C3.21355236,11.976386 2.90041068,12.2843943 2.90041068,12.664271 C2.90041068,13.0441478 3.20841889,13.3521561 3.58829569,13.3521561 L15.1437372,13.3521561 C15.5184805,13.3521561 15.8264887,13.0441478 15.8264887,12.664271 Z" id="Path"></path>
                <path d="M15.2002053,9.23511294 L8.75256674,9.23511294 C8.37782341,9.23511294 8.06468172,9.54312115 8.06468172,9.92299795 C8.06468172,10.2977413 8.37268994,10.610883 8.75256674,10.610883 L15.2002053,10.610883 C15.5749487,10.610883 15.8880903,10.3028747 15.8880903,9.92299795 C15.8829569,9.54312115 15.5749487,9.23511294 15.2002053,9.23511294 Z" id="Path"></path>
                <path d="M17.3511294,20.6570842 C17.3511294,21.5041068 16.6632444,22.1919918 15.8162218,22.1919918 L2.91067762,22.1919918 C2.06365503,22.1919918 1.37577002,21.5041068 1.37577002,20.6570842 L1.37577002,2.94661191 C1.37577002,2.09958932 2.06365503,1.41170431 2.91067762,1.41170431 L12.0071869,1.41170431 L12.0071869,3.63963039 C12.0071869,5.24640657 13.3110883,6.55030801 14.9178645,6.55030801 L17.3511294,6.55030801 L17.3511294,10.261807 C17.3716632,10.2310062 17.3921971,10.1950719 17.4075975,10.164271 C17.4435318,10.1078029 17.4845996,10.0410678 17.5308008,9.96919918 C17.9055441,9.35318275 18.5010267,8.362423 18.6190965,8.1724846 C18.6498973,8.11601643 18.6858316,8.06468172 18.7217659,8.00821355 L18.7217659,6.13449692 C18.7217659,5.95482546 18.6858316,5.78028747 18.6190965,5.6211499 C18.5472279,5.45687885 18.449692,5.31314168 18.3213552,5.1899384 L13.3572895,0.415811088 C13.2340862,0.297741273 13.0903491,0.205338809 12.936345,0.143737166 C12.7772074,0.0821355236 12.6129363,0.046201232 12.4435318,0.046201232 L2.91067762,0.046201232 C1.30390144,0.046201232 0,1.35010267 0,2.95687885 L0,20.6673511 C0,22.2741273 1.30390144,23.5780287 2.91067762,23.5780287 L15.8162218,23.5780287 C17.4229979,23.5780287 18.7268994,22.2741273 18.7268994,20.6673511 L18.7268994,17.2689938 C18.2854209,17.8644764 17.8285421,18.4548255 17.3562628,19.0297741 L17.3562628,20.6570842 L17.3511294,20.6570842 L17.3511294,20.6570842 Z" id="Path"></path>
                <path d="M4.82546201,4.55338809 C4.20431211,4.78952772 3.82443532,5.22073922 3.7936345,5.90349076 C3.76796715,6.50410678 4.0862423,6.90965092 4.58418891,7.19712526 C4.89219713,7.37679671 5.23100616,7.47946612 5.55441478,7.61806982 C5.68275154,7.66940452 5.80082136,7.73613963 5.90862423,7.81827515 C6.22176591,8.0698152 6.17043121,8.49589322 5.80595483,8.66529774 C5.61088296,8.75256674 5.40041068,8.77823409 5.1899384,8.75770021 C4.8613963,8.72176591 4.54312115,8.63963039 4.24024641,8.49075975 C4.06570842,8.40349076 4.01437372,8.42915811 3.95790554,8.61909651 C3.91170431,8.78336756 3.86550308,8.9476386 3.82443532,9.11190965 C3.76796715,9.33264887 3.78850103,9.38911704 4.00410678,9.48665298 C4.2761807,9.61498973 4.56365503,9.67659138 4.85626283,9.71765914 C5.08726899,9.74845996 5.09240246,9.7587269 5.1026694,10 C5.10780287,10.1078029 5.10780287,10.2156057 5.11293634,10.3234086 C5.11806982,10.4620123 5.18480493,10.5390144 5.32340862,10.5390144 C5.4825462,10.5390144 5.64168378,10.5390144 5.80082136,10.5287474 C5.92915811,10.523614 5.99589322,10.4517454 5.99589322,10.3182752 C5.99589322,10.1694045 6.00102669,10.0205339 5.99075975,9.87679671 C5.98049281,9.72792608 6.04722793,9.65092402 6.19096509,9.60985626 C6.52464066,9.51232033 6.80184805,9.33264887 7.0174538,9.06057495 C7.61293634,8.31622177 7.36652977,7.23819302 6.49897331,6.7761807 C6.22689938,6.63244353 5.93942505,6.52464066 5.65195072,6.40657084 C5.48767967,6.33983573 5.32854209,6.26283368 5.1899384,6.1550308 C4.91273101,5.93942505 4.95893224,5.58521561 5.27720739,5.44147844 C5.36447639,5.40041068 5.46201232,5.38501027 5.55954825,5.3798768 C5.92915811,5.35420945 6.28336756,5.41581109 6.62217659,5.57494867 C6.79158111,5.65195072 6.84804928,5.62628337 6.89938398,5.45174538 C6.95585216,5.26694045 7.00205339,5.07700205 7.05338809,4.89219713 C7.08932238,4.76899384 7.04312115,4.68685832 6.92505133,4.63552361 C6.70944559,4.54312115 6.4835729,4.47638604 6.25256674,4.44558522 C5.94969199,4.40451745 5.94969199,4.39938398 5.94455852,4.09650924 C5.93429158,3.66529774 5.93429158,3.66529774 5.50821355,3.67043121 C5.44661191,3.67043121 5.38501027,3.67043121 5.31827515,3.67556468 C5.11806982,3.68583162 5.08213552,3.72176591 5.08213552,3.92197125 C5.08213552,4.01437372 5.08213552,4.10164271 5.08726899,4.19404517 C5.08213552,4.46098563 5.08213552,4.45585216 4.82546201,4.55338809 Z" id="Path"></path>
                <path d="M14.5431211,15.4620123 C14.661191,15.2156057 14.7843943,14.9691992 14.9075975,14.7227926 L3.58829569,14.7227926 C3.21355236,14.7227926 2.90041068,15.0308008 2.90041068,15.4106776 C2.90041068,15.7854209 3.20841889,16.0985626 3.58829569,16.0985626 L14.2453799,16.0985626 C14.3377823,15.8880903 14.4404517,15.6776181 14.5431211,15.4620123 Z" id="Path"></path>
                <path d="M2.90041068,18.1468172 L2.90041068,18.1468172 C2.90041068,18.5215606 3.20841889,18.8347023 3.58829569,18.8347023 L13.1468172,18.8347023 C13.2956879,18.3726899 13.4599589,17.9209446 13.6447639,17.4640657 L3.58829569,17.4640657 C3.20841889,17.4640657 2.90041068,17.7720739 2.90041068,18.1468172 Z" id="Path"></path>
                <path d="M24.7125257,7.89014374 L24.7125257,7.89014374 L24.3223819,7.66427105 L23.6909651,7.29979466 C23.7936345,7.06365503 23.886037,6.82238193 23.9579055,6.57597536 C23.9784394,6.49383984 24.0041068,6.41683778 24.0195072,6.33470226 C24.1324435,5.775154 23.9373717,5.39014374 23.3778234,5.05646817 C22.8952772,4.76899384 22.5154004,4.79979466 22.0790554,5.15913758 C21.7813142,5.40554415 21.5400411,5.70328542 21.3141684,6.01129363 C20.4928131,7.13039014 19.7946612,8.33162218 19.0657084,9.50718686 L18.1827515,10.9753593 L18.1827515,10.9753593 C17.2279261,12.5924025 16.3295688,14.2402464 15.513347,15.9342916 C14.9743326,17.0482546 14.4661191,18.1776181 14.1067762,19.3685832 C14.0708419,19.5328542 14.0246407,19.7022587 14.0092402,19.8716632 C13.9887064,20.0667351 13.9168378,20.3080082 14.1273101,20.4312115 C14.3326489,20.5492813 14.5123203,20.3850103 14.6765914,20.2669405 C15.1180698,19.9486653 15.4876797,19.5533881 15.8418891,19.1478439 C17.5718686,17.1714579 19.0451745,15.0154004 20.4620123,12.8080082 L20.4620123,12.8080082 L21.5759754,11.0215606 C22.0533881,10.2053388 22.5513347,9.40451745 23.023614,8.58829569 C23.110883,8.43429158 23.2032854,8.275154 23.2905544,8.1211499 L23.87577,8.45995893 L21.0215606,13.3726899 C20.8059548,13.7474333 20.9958932,14.2453799 21.4579055,14.3531828 C21.4989733,14.3634497 21.5451745,14.3429158 21.5657084,14.3069815 L24.8973306,8.56776181 C25.0256674,8.32648871 24.9486653,8.02874743 24.7125257,7.89014374 Z" id="Path"></path>
            </g>
        </g>
    </g>
</svg>