<?xml version="1.0" encoding="utf-8"?>
<!-- Generator: Adobe Illustrator 21.1.0, SVG Export Plug-In . SVG Version: 6.00 Build 0)  -->
<svg version="1.1" id="Layer_1" xmlns="http://www.w3.org/2000/svg" xmlns:xlink="http://www.w3.org/1999/xlink" x="0px" y="0px"
	 viewBox="0 0 42.7 42.7" style="enable-background:new 0 0 42.7 42.7;" xml:space="preserve">
<style type="text/css">
	.st0{filter:url(#Adobe_OpacityMaskFilter);}
	.st1{fill:#FFFFFF;}
	.st2{mask:url(#mask-2);fill:#B6B6B6;}
	.st3{fill:#212121;}
</style>
<title>Instagram@1x</title>
<desc>Created with Sketch.</desc>
<g id="Symbols">
	<g id="Components_x2F_Footer" transform="translate(-1001.000000, -409.000000)">
		<g id="Footer">
			<g id="Social-Icons" transform="translate(578.000000, 358.000000)">
				<g id="Instagram" transform="translate(423.000000, 51.000000)">
					<g id="Group-3" transform="translate(0.000000, 0.459900)">
						<g id="Clip-2">
						</g>
						<defs>
							<filter id="Adobe_OpacityMaskFilter" filterUnits="userSpaceOnUse" x="0" y="-0.5" width="42.7" height="42.7">
								<feColorMatrix  type="matrix" values="1 0 0 0 0  0 1 0 0 0  0 0 1 0 0  0 0 0 1 0"/>
							</filter>
						</defs>
						<mask maskUnits="userSpaceOnUse" x="0" y="-0.5" width="42.7" height="42.7" id="mask-2">
							<g class="st0">
								<polygon id="path-1" class="st1" points="0,-0.5 42.7,-0.5 42.7,42.2 0,42.2 								"/>
							</g>
						</mask>
						<path id="Fill-1" class="st2" d="M38.4,42.2c0.2,0,0.4-0.1,0.7-0.1c1.7-0.4,3.2-1.8,3.5-3.6c0-0.2,0.1-0.4,0.1-0.6V3.8
							c0-0.2-0.1-0.4-0.1-0.6c-0.4-1.9-2-3.4-3.9-3.7c-0.1,0-0.2,0-0.2,0H4.2C4-0.4,3.8-0.4,3.6-0.3C1.7,0.1,0.3,1.6,0,3.5
							c0,0.1,0,0.2,0,0.2V38c0,0.2,0.1,0.4,0.1,0.7c0.4,1.8,2,3.3,3.9,3.5c0.1,0,0.2,0,0.3,0L38.4,42.2L38.4,42.2z"/>
					</g>
					<path id="Fill-4" class="st3" d="M34.3,11L34.3,11c0.7,0,1.4,0,2.1,0c0.9,0,1.6-0.8,1.6-1.7v-4c0-1-0.8-1.7-1.7-1.7
						c-1.3,0-2.7,0-4,0c-1,0-1.7,0.8-1.7,1.7c0,1.3,0,2.7,0,4c0,0.2,0,0.4,0.1,0.6c0.2,0.7,0.9,1.1,1.7,1.2C33,11,33.7,11,34.3,11"
						/>
					<path id="Fill-6" class="st3" d="M21.3,12.7c-4.7,0-8.6,3.8-8.7,8.5c-0.1,4.8,3.8,8.7,8.5,8.8c4.8,0.1,8.7-3.8,8.8-8.5
						C30.1,16.7,26.2,12.7,21.3,12.7"/>
					<path id="Fill-8" class="st3" d="M4.6,17.3v0.1c0,6.3,0,12.6,0,19c0,0.9,0.8,1.7,1.7,1.7c10,0,20,0,30.1,0
						c0.9,0,1.7-0.8,1.7-1.7c0-6.3,0-12.6,0-18.9v-0.1H34c0.6,1.8,0.8,3.7,0.5,5.6c-0.2,1.9-0.8,3.7-1.8,5.3c-1,1.6-2.3,3-3.9,4.1
						c-4.1,2.8-9.5,3.1-13.9,0.6c-2.2-1.2-3.9-3-5.2-5.2c-1.8-3.3-2.1-6.8-1-10.4H4.6z"/>
				</g>
			</g>
		</g>
	</g>
</g>
</svg>
