<?xml version="1.0" encoding="UTF-8"?>
<svg width="32px" height="35px" viewBox="0 0 32 35" version="1.1" xmlns="http://www.w3.org/2000/svg" xmlns:xlink="http://www.w3.org/1999/xlink">
    <!-- Generator: Sketch 53.2 (72643) - https://sketchapp.com -->
    <title>Vessel Schedules Unselected</title>
    <desc>Created with Sketch.</desc>
    <g id="Web" stroke="none" stroke-width="1" fill="none" fill-rule="evenodd">
        <g id="11-Find-a-Route" transform="translate(-25.000000, -323.000000)" fill-rule="nonzero">
            <g id="Vessel-Schedules-Unselected" transform="translate(25.000000, 323.000000)">
                <g id="cruise" transform="translate(0.000000, 5.000000)" fill="#000000">
                    <path d="M22.9231058,16.5111769 C22.9231058,16.5111769 19.127742,14.2912233 19.122983,14.2884386 C18.8498418,14.1286532 18.4819914,14.2129178 18.3139587,14.4699446 C18.1455736,14.7275283 18.2349364,15.0781762 18.5054924,15.2362909 C18.5054924,15.2362909 22.3032652,17.4576926 22.3056153,17.4590292 C22.5786389,17.6187033 22.9461956,17.536555 23.114052,17.2775232 C23.2819084,17.0184358 23.1963645,16.670851 22.9231058,16.5111769 Z" id="Path"></path>
                    <path d="M16.9885605,13.3739441 C16.7222893,13.3739025 16.5215123,13.6272358 16.5823791,13.8862358 C16.6066007,13.9894025 16.6775564,14.0831108 16.7710244,14.1422775 C16.8351846,14.1829025 16.9099757,14.2072775 16.9876434,14.2072775 C17.1335152,14.2072775 17.2665049,14.1335691 17.3427968,14.0094441 C17.5053027,13.7450275 17.3010239,13.3739858 16.9885605,13.3739441 Z" id="Path"></path>
                    <path d="M10.6820639,14.4599091 C10.5155754,14.2114437 10.1317254,14.1311473 9.8680941,14.2872055 C9.8680941,14.2872055 6.08023088,16.5253298 6.07385699,16.5290903 C5.8009009,16.6903467 5.71762716,17.0358646 5.88954523,17.2914085 C5.99288493,17.4450888 6.19230517,17.5351734 6.38971882,17.5403717 C6.50078981,17.5433026 6.61121161,17.5193575 6.70357405,17.4647758 C6.70357405,17.4647758 10.4951554,15.2239417 10.4978112,15.222338 C10.7707082,15.0610816 10.8535688,14.7158401 10.6820639,14.4599091 Z" id="Path"></path>
                    <path d="M12.0136177,13.3739441 C11.8211688,13.3739441 11.6525481,13.5099441 11.6099889,13.6984441 C11.5520139,13.9552358 11.7542012,14.2072775 12.0144465,14.2072775 C12.2065224,14.2072775 12.3760962,14.0713191 12.4184897,13.8826525 C12.4765476,13.6243191 12.276225,13.3739441 12.0136177,13.3739441 Z" id="Path"></path>
                    <path d="M28.8610362,25.9876732 C28.655771,25.7502158 28.2980295,25.7251483 28.0619518,25.9316132 C27.4579939,26.4597964 26.8990653,27.0074068 26.1066078,27.2277158 C25.2256778,27.4725795 24.3884743,27.279332 23.5912024,26.8783663 L26.5409839,16.8955847 C26.6143901,16.6472458 26.5118707,16.3803341 26.2915957,16.2460522 L23.5624856,14.582768 L23.5624856,9.72577304 C23.5624856,9.41117618 23.308906,9.15605761 22.9960804,9.15605761 L21.8632701,9.15605761 L21.8632701,7.44691133 C21.8632701,7.13231447 21.6096905,6.87719591 21.2968649,6.87719591 L19.5126886,6.87719591 L19.5126886,5.16804963 C19.5126886,4.85345277 19.259109,4.5983342 18.9462834,4.5983342 L16.1992182,4.5983342 L16.1992182,0.610326213 C16.1992182,0.295729354 15.9456386,0.0406107862 15.632813,0.0406107862 L13.3671923,0.0406107862 C13.0543667,0.0406107862 12.8007871,0.295729354 12.8007871,0.610326213 L12.8007871,4.5983342 L10.0537219,4.5983342 C9.74089636,4.5983342 9.48731676,4.85345277 9.48731676,5.16804963 L9.48731676,6.87719591 L7.70314042,6.87719591 C7.39031484,6.87719591 7.13673524,7.13231447 7.13673524,7.44691133 L7.13673524,9.15605761 L6.00392487,9.15605761 C5.69109928,9.15605761 5.43751968,9.41117618 5.43751968,9.72577304 L5.43751968,14.582768 L2.70846621,16.2459952 C2.4881346,16.3802771 2.3856719,16.6471888 2.45907801,16.8955277 C2.45907801,16.8955277 5.40160959,26.8535837 5.40285568,26.8579135 C5.35261554,26.6879104 4.44625396,26.5759614 4.28601794,26.5551098 C2.63681596,26.340441 1.38273824,27.1714279 0.194759998,28.2104179 C-0.0413176831,28.4168828 -0.0662395113,28.7766581 0.138969088,29.0141155 C0.334888641,29.2407483 0.69948366,29.2788053 0.937996883,29.0702325 C2.16188521,28.000079 3.54170488,27.1843035 5.16105731,27.9988256 C6.62600768,28.7355246 8.14238765,29.0514319 9.66822658,28.2438033 C10.8985719,27.5923906 12.0858705,27.0299106 13.4591765,27.6875901 L14.8710547,28.3638423 C16.0789704,28.9424453 17.4580537,28.929114 18.6545847,28.3272666 C19.391931,27.9564388 20.1413417,27.4629513 20.9835862,27.4047264 C21.8091784,27.3476979 22.6069034,27.6568824 23.3322986,28.022013 C24.2905995,28.5039923 25.4124783,28.6002742 26.4415232,28.3052186 C27.3894023,28.0334074 28.0792271,27.4262047 28.8051887,26.7913138 C29.041323,26.5849059 29.0662448,26.2251306 28.8610362,25.9876732 Z M22.4296753,10.2954885 L22.4296753,13.8923868 L16.5278465,10.2954885 L22.4296753,10.2954885 Z M13.9335975,1.18004164 L15.0664078,1.18004164 L15.0664078,4.5983342 L13.9335975,4.5983342 L13.9335975,1.18004164 L13.9335975,1.18004164 Z M10.6201271,5.73776505 L18.3798782,5.73776505 L18.3798782,6.87719591 L10.6201271,6.87719591 L10.6201271,5.73776505 Z M6.57033005,10.2954885 L12.4721588,10.2954885 L6.57033005,13.8923868 L6.57033005,10.2954885 Z M13.9335975,26.6528729 C13.9337108,26.5516345 13.1261869,26.3648818 13.0205523,26.3418653 C12.0347807,26.1272535 10.9765093,26.2635294 10.0828352,26.7366781 C9.43441452,27.0799316 8.80881999,27.4803846 8.06722568,27.5764386 C8.06586631,27.5766095 8.06450693,27.5767804 8.06314756,27.5769514 C7.62984759,27.6299349 7.18635233,27.5978599 6.76698593,27.4748584 L3.66948589,16.9926072 L13.9335975,10.7371319 C13.9335975,10.7371319 13.9335975,26.6522462 13.9335975,26.6528729 Z M8.26954561,9.15605761 L8.26954561,8.01662676 L20.7304597,8.01662676 L20.7304597,9.15605761 L8.26954561,9.15605761 Z M22.5442024,26.4217964 C22.5504895,26.2455264 20.9560589,26.2471216 20.8492349,26.2584589 C19.8660687,26.3630587 19.0155547,26.8718715 18.1479353,27.3082166 C17.1229684,27.8236951 16.068322,27.6755121 15.0664078,27.1954129 L15.0664078,10.7371319 L25.3305194,16.9926072 L22.5442024,26.4217964 Z" id="Shape"></path>
                </g>
                <g id="calendar-(1)" transform="translate(20.000000, 0.000000)" fill="#1A1A1A">
                    <path d="M6.09179688,0.18359375 C2.83398437,0.18359375 0.18359375,2.83398437 0.18359375,6.09179688 C0.18359375,9.34960938 2.83398437,12 6.09179688,12 C9.34960938,12 12,9.34960938 12,6.09179688 C12,2.83398437 9.34960938,0.18359375 6.09179688,0.18359375 Z M6.091797,10.646875 C3.63528899,10.646875 1.636719,8.64836001 1.636719,6.191797 C1.636719,3.73523399 3.63528899,1.736719 6.091797,1.736719 C8.54830501,1.736719 10.546875,3.73523399 10.546875,6.191797 C10.546875,8.64836001 8.54830501,10.646875 6.091797,10.646875 Z" id="Shape"></path>
                    <path d="M7.5078125,5.55234886 L6.59427601,5.55234886 L6.59427601,4.08984375 C6.59427601,3.55048828 6.41522977,3.11328125 5.8758743,3.11328125 C5.33651883,3.11328125 5.11523438,3.55048828 5.11523438,4.08984375 L5.11523438,6.09179687 C5.11523438,6.63115234 5.55244141,7.06835937 6.09179688,7.06835937 L7.5078125,7.06835937 C8.04716797,7.06835937 8.484375,6.84643926 8.484375,6.30708379 C8.484375,5.76772833 8.04716797,5.55234886 7.5078125,5.55234886 Z" id="Path"></path>
                </g>
            </g>
        </g>
    </g>
</svg>