<?xml version="1.0" encoding="UTF-8"?>
<svg width="32px" height="35px" viewBox="0 0 32 35" version="1.1" xmlns="http://www.w3.org/2000/svg" xmlns:xlink="http://www.w3.org/1999/xlink">
    <!-- Generator: Sketch 53.2 (72643) - https://sketchapp.com -->
    <title>Vessel Schedules Selected</title>
    <desc>Created with Sketch.</desc>
    <g id="Web" stroke="none" stroke-width="1" fill="none" fill-rule="evenodd">
        <g id="Vessel-Schedules-Selected" transform="translate(0.000000, 0.159229)" fill="#016799" fill-rule="nonzero">
            <path d="M22.9231058,21.3275832 C22.9231058,21.3275832 19.127742,19.1076295 19.122983,19.1048448 C18.8498418,18.9450594 18.4819914,19.0293241 18.3139587,19.2863508 C18.1455736,19.5439345 18.2349364,19.8945825 18.5054924,20.0526971 C18.5054924,20.0526971 22.3032652,22.2740988 22.3056153,22.2754355 C22.5786389,22.4351095 22.9461956,22.3529612 23.114052,22.0939295 C23.2819084,21.8348421 23.1963645,21.4872572 22.9231058,21.3275832 Z" id="Path"></path>
            <path d="M16.9885605,18.1903504 C16.7222893,18.1903087 16.5215123,18.443642 16.5823791,18.702642 C16.6066007,18.8058087 16.6775564,18.899517 16.7710244,18.9586837 C16.8351846,18.9993087 16.9099757,19.0236837 16.9876434,19.0236837 C17.1335152,19.0236837 17.2665049,18.9499754 17.3427968,18.8258504 C17.5053027,18.5614337 17.3010239,18.190392 16.9885605,18.1903504 Z" id="Path"></path>
            <path d="M10.6820639,19.2763154 C10.5155754,19.02785 10.1317254,18.9475535 9.8680941,19.1036117 C9.8680941,19.1036117 6.08023088,21.3417361 6.07385699,21.3454965 C5.8009009,21.506753 5.71762716,21.8522709 5.88954523,22.1078148 C5.99288493,22.2614951 6.19230517,22.3515797 6.38971882,22.3567779 C6.50078981,22.3597089 6.61121161,22.3357637 6.70357405,22.2811821 C6.70357405,22.2811821 10.4951554,20.040348 10.4978112,20.0387442 C10.7707082,19.8774878 10.8535688,19.5322464 10.6820639,19.2763154 Z" id="Path"></path>
            <path d="M12.0136177,18.1903504 C11.8211688,18.1903504 11.6525481,18.3263504 11.6099889,18.5148504 C11.5520139,18.771642 11.7542012,19.0236837 12.0144465,19.0236837 C12.2065224,19.0236837 12.3760962,18.8877254 12.4184897,18.6990587 C12.4765476,18.4407254 12.276225,18.1903504 12.0136177,18.1903504 Z" id="Path"></path>
            <path d="M28.8610362,30.8040795 C28.655771,30.5666221 28.2980295,30.5415546 28.0619518,30.7480195 C27.4579939,31.2762026 26.8990653,31.8238131 26.1066078,32.0441221 C25.2256778,32.2889857 24.3884743,32.0957383 23.5912024,31.6947726 L26.5409839,21.711991 C26.6143901,21.463652 26.5118707,21.1967403 26.2915957,21.0624584 L23.5624856,19.3991742 L23.5624856,14.5421793 C23.5624856,14.2275824 23.308906,13.9724639 22.9960804,13.9724639 L21.8632701,13.9724639 L21.8632701,12.2633176 C21.8632701,11.9487207 21.6096905,11.6936022 21.2968649,11.6936022 L19.5126886,11.6936022 L19.5126886,9.98445588 C19.5126886,9.66985902 19.259109,9.41474045 18.9462834,9.41474045 L16.1992182,9.41474045 L16.1992182,5.42673246 C16.1992182,5.1121356 15.9456386,4.85701704 15.632813,4.85701704 L13.3671923,4.85701704 C13.0543667,4.85701704 12.8007871,5.1121356 12.8007871,5.42673246 L12.8007871,9.41474045 L10.0537219,9.41474045 C9.74089636,9.41474045 9.48731676,9.66985902 9.48731676,9.98445588 L9.48731676,11.6936022 L7.70314042,11.6936022 C7.39031484,11.6936022 7.13673524,11.9487207 7.13673524,12.2633176 L7.13673524,13.9724639 L6.00392487,13.9724639 C5.69109928,13.9724639 5.43751968,14.2275824 5.43751968,14.5421793 L5.43751968,19.3991742 L2.70846621,21.0624014 C2.4881346,21.1966834 2.3856719,21.463595 2.45907801,21.711934 C2.45907801,21.711934 5.40160959,31.6699899 5.40285568,31.6743198 C5.35261554,31.5043167 4.44625396,31.3923676 4.28601794,31.371516 C2.63681596,31.1568472 1.38273824,31.9878342 0.194759998,33.0268242 C-0.0413176831,33.2332891 -0.0662395113,33.5930644 0.138969088,33.8305217 C0.334888641,34.0571545 0.69948366,34.0952115 0.937996883,33.8866387 C2.16188521,32.8164853 3.54170488,32.0007097 5.16105731,32.8152319 C6.62600768,33.5519309 8.14238765,33.8678381 9.66822658,33.0602095 C10.8985719,32.4087969 12.0858705,31.8463169 13.4591765,32.5039963 L14.8710547,33.1802486 C16.0789704,33.7588515 17.4580537,33.7455202 18.6545847,33.1436728 C19.391931,32.7728451 20.1413417,32.2793576 20.9835862,32.2211326 C21.8091784,32.1641041 22.6069034,32.4732887 23.3322986,32.8384193 C24.2905995,33.3203986 25.4124783,33.4166805 26.4415232,33.1216248 C27.3894023,32.8498136 28.0792271,32.2426109 28.8051887,31.60772 C29.041323,31.4013121 29.0662448,31.0415368 28.8610362,30.8040795 Z M22.4296753,15.1118947 L22.4296753,18.7087931 L16.5278465,15.1118947 L22.4296753,15.1118947 Z M13.9335975,5.99644789 L15.0664078,5.99644789 L15.0664078,9.41474045 L13.9335975,9.41474045 L13.9335975,5.99644789 L13.9335975,5.99644789 Z M10.6201271,10.5541713 L18.3798782,10.5541713 L18.3798782,11.6936022 L10.6201271,11.6936022 L10.6201271,10.5541713 Z M6.57033005,15.1118947 L12.4721588,15.1118947 L6.57033005,18.7087931 L6.57033005,15.1118947 Z M13.9335975,31.4692792 C13.9337108,31.3680408 13.1261869,31.181288 13.0205523,31.1582715 C12.0347807,30.9436597 10.9765093,31.0799357 10.0828352,31.5530843 C9.43441452,31.8963379 8.80881999,32.2967908 8.06722568,32.3928449 C8.06586631,32.3930158 8.06450693,32.3931867 8.06314756,32.3933576 C7.62984759,32.4463411 7.18635233,32.4142662 6.76698593,32.2912646 L3.66948589,21.8090135 L13.9335975,15.5535381 C13.9335975,15.5535381 13.9335975,31.4686525 13.9335975,31.4692792 Z M8.26954561,13.9724639 L8.26954561,12.833033 L20.7304597,12.833033 L20.7304597,13.9724639 L8.26954561,13.9724639 Z M22.5442024,31.2382026 C22.5504895,31.0619327 20.9560589,31.0635279 20.8492349,31.0748652 C19.8660687,31.1794649 19.0155547,31.6882778 18.1479353,32.1246228 C17.1229684,32.6401014 16.068322,32.4919184 15.0664078,32.0118192 L15.0664078,15.5535381 L25.3305194,21.8090135 L22.5442024,31.2382026 Z" id="Shape"></path>
            <path d="M26.0917969,0 C22.8339844,0 20.1835938,2.65039062 20.1835938,5.90820312 C20.1835938,9.16601563 22.8339844,11.8164062 26.0917969,11.8164062 C29.3496094,11.8164062 32,9.16601563 32,5.90820312 C32,2.65039062 29.3496094,0 26.0917969,0 Z M26.091797,10.4632812 C23.635289,10.4632812 21.636719,8.46476626 21.636719,6.00820325 C21.636719,3.55164024 23.635289,1.55312525 26.091797,1.55312525 C28.548305,1.55312525 30.546875,3.55164024 30.546875,6.00820325 C30.546875,8.46476626 28.548305,10.4632812 26.091797,10.4632812 Z" id="Shape"></path>
            <path d="M27.5078125,5.36875511 L26.594276,5.36875511 L26.594276,3.90625 C26.594276,3.36689453 26.4152298,2.9296875 25.8758743,2.9296875 C25.3365188,2.9296875 25.1152344,3.36689453 25.1152344,3.90625 L25.1152344,5.90820312 C25.1152344,6.44755859 25.5524414,6.88476562 26.0917969,6.88476562 L27.5078125,6.88476562 C28.047168,6.88476562 28.484375,6.66284551 28.484375,6.12349004 C28.484375,5.58413458 28.047168,5.36875511 27.5078125,5.36875511 Z" id="Path"></path>
        </g>
    </g>
</svg>