<?xml version="1.0" encoding="utf-8"?>
<!-- Generator: Adobe Illustrator 21.1.0, SVG Export Plug-In . SVG Version: 6.00 Build 0)  -->
<svg version="1.1" id="Layer_1" xmlns="http://www.w3.org/2000/svg" xmlns:xlink="http://www.w3.org/1999/xlink" x="0px" y="0px"
	 viewBox="0 0 33.1 33.1" style="enable-background:new 0 0 33.1 33.1;" xml:space="preserve">
<style type="text/css">
	.st0{fill:#016799;}
</style>
<title>Manage Blue</title>
<desc>Created with Sketch.</desc>
<g id="Web">
	<g id="Manage-Blue">
		<path id="Shape" class="st0" d="M21.2,23.8c-0.3-0.2-0.7-0.4-1.1-0.6c0.1-0.7,0.1-1.4,0-2.2c0.4-0.2,0.7-0.4,1.1-0.6
			c0.6-0.3,0.8-1.1,0.6-1.7c0,0,0,0,0,0L21,16.9c-0.3-0.6-1-1-1.6-0.8c-0.4,0.1-0.8,0.2-1.2,0.3c-0.4-0.6-1-1.1-1.5-1.5
			c0.1-0.4,0.2-0.8,0.3-1.2c0.2-0.7-0.2-1.4-0.8-1.6l-1.8-0.8c-0.6-0.3-1.4,0-1.7,0.6c-0.2,0.3-0.4,0.7-0.6,1.1
			c-0.7-0.1-1.4-0.1-2.2,0c-0.2-0.4-0.4-0.7-0.6-1.1c-0.4-0.6-1.1-0.8-1.7-0.6L5.7,12c-0.6,0.3-1,1-0.8,1.6C5,14,5.1,14.4,5.2,14.8
			c-0.6,0.4-1.1,1-1.5,1.5c-0.4-0.1-0.8-0.2-1.2-0.3c-0.7-0.2-1.4,0.2-1.6,0.8l-0.8,1.8c-0.3,0.6,0,1.4,0.6,1.7
			C1,20.6,1.4,20.8,1.7,21c-0.1,0.7-0.1,1.4,0,2.2c-0.4,0.2-0.7,0.4-1.1,0.6c-0.6,0.4-0.8,1.1-0.6,1.7l0.8,1.8c0.3,0.6,1,1,1.6,0.8
			c0.4-0.1,0.8-0.2,1.2-0.3c0.4,0.6,1,1.1,1.5,1.5c-0.1,0.4-0.2,0.8-0.3,1.2c-0.2,0.7,0.2,1.4,0.8,1.6L7.5,33
			c0.2,0.1,0.3,0.1,0.5,0.1c0.5,0,0.9-0.2,1.2-0.7c0.2-0.3,0.4-0.7,0.6-1.1c0.7,0.1,1.4,0.1,2.2,0c0.2,0.4,0.4,0.7,0.6,1.1
			c0.4,0.6,1.1,0.8,1.7,0.6l1.8-0.8c0.6-0.3,1-1,0.8-1.6c-0.1-0.4-0.2-0.8-0.3-1.2c0.6-0.4,1.1-1,1.5-1.5c0.4,0.1,0.8,0.2,1.2,0.3
			c0.7,0.2,1.4-0.2,1.6-0.8l0.8-1.8C22.1,24.9,21.8,24.2,21.2,23.8z M19.7,26.7c-0.4-0.1-0.8-0.2-1.1-0.3c-0.5-0.1-1.1,0-1.5,0.5
			c-0.4,0.5-0.8,1-1.4,1.4c-0.4,0.3-0.6,0.9-0.5,1.5c0.1,0.4,0.2,0.8,0.3,1.1l-1.7,0.7c-0.2-0.3-0.4-0.7-0.6-1
			c-0.3-0.5-0.8-0.8-1.4-0.7c-0.6,0.1-1.3,0.1-1.9,0c-0.6-0.1-1.1,0.2-1.4,0.7c-0.2,0.3-0.4,0.7-0.6,1l-1.7-0.7
			c0.1-0.4,0.2-0.8,0.3-1.1c0.1-0.5,0-1.1-0.5-1.5c-0.5-0.4-1-0.8-1.4-1.4c-0.3-0.4-0.9-0.6-1.5-0.5c-0.4,0.1-0.8,0.2-1.1,0.3
			L1.5,25c0.3-0.2,0.7-0.4,1-0.6c0.5-0.3,0.8-0.8,0.7-1.4c-0.1-0.6-0.1-1.3,0-1.9c0.1-0.6-0.2-1.1-0.7-1.4c-0.3-0.2-0.7-0.4-1-0.6
			l0.7-1.7c0.4,0.1,0.8,0.2,1.1,0.3c0.5,0.1,1.1,0,1.5-0.5c0.4-0.5,0.8-1,1.4-1.4c0.4-0.3,0.6-0.9,0.5-1.5c-0.1-0.4-0.2-0.8-0.3-1.1
			L8,12.7c0.2,0.3,0.4,0.7,0.6,1c0.3,0.5,0.8,0.8,1.4,0.7c0.6-0.1,1.3-0.1,1.9,0c0.6,0.1,1.1-0.2,1.4-0.7c0.2-0.3,0.4-0.7,0.6-1
			l1.7,0.7c-0.1,0.4-0.2,0.8-0.3,1.1c-0.1,0.5,0,1.1,0.5,1.5c0.5,0.4,1,0.8,1.4,1.4c0.3,0.4,0.9,0.6,1.5,0.5
			c0.4-0.1,0.8-0.2,1.1-0.3l0.7,1.7c-0.3,0.2-0.7,0.4-1,0.6c-0.5,0.3-0.8,0.8-0.7,1.4c0.1,0.6,0.1,1.3,0,1.9
			c-0.1,0.6,0.2,1.1,0.7,1.4c0.3,0.2,0.7,0.4,1,0.6L19.7,26.7z"/>
		<path id="Shape_1_" class="st0" d="M15.6,20.2C15.6,20.2,15.6,20.2,15.6,20.2c-1.1-2.6-4-3.8-6.6-2.7c-2.6,1.1-3.8,4-2.7,6.6
			c0.5,1.2,1.5,2.2,2.7,2.7c0.6,0.3,1.3,0.4,1.9,0.4c0.7,0,1.3-0.1,1.9-0.4C15.4,25.7,16.7,22.7,15.6,20.2z M12.3,25.4
			c-0.9,0.4-1.8,0.4-2.7,0c-0.9-0.4-1.6-1-1.9-1.9c-0.8-1.8,0.1-3.9,1.9-4.7c0.4-0.2,0.9-0.3,1.4-0.3c1.4,0,2.7,0.8,3.3,2.2
			C15,22.6,14.1,24.6,12.3,25.4z"/>
		<path id="Shape_2_" class="st0" d="M32.1,6.5c-0.3,0-0.5-0.1-0.8-0.1C31.1,6,31,5.5,30.7,5.1c0.2-0.2,0.3-0.4,0.5-0.6
			C31.6,4,31.5,3.4,31.1,3l-1-1c-0.4-0.4-1.1-0.5-1.5-0.1c-0.2,0.2-0.4,0.3-0.6,0.5c-0.4-0.2-0.8-0.4-1.3-0.5c0-0.3-0.1-0.5-0.1-0.8
			c-0.1-0.6-0.6-1-1.2-1h-1.4c-0.6,0-1.1,0.4-1.2,1c0,0.3-0.1,0.5-0.1,0.8c-0.4,0.1-0.9,0.3-1.3,0.5C21.2,2.1,21,2,20.8,1.8
			c-0.5-0.3-1.1-0.3-1.5,0.1l-1,1c-0.4,0.4-0.5,1.1-0.1,1.5c0.2,0.2,0.3,0.4,0.5,0.6C18.4,5.5,18.2,6,18,6.4c-0.3,0-0.5,0.1-0.8,0.1
			c-0.6,0.1-1,0.6-1,1.2v1.4c0,0.6,0.4,1.1,1,1.2c0.3,0,0.5,0.1,0.8,0.1c0.1,0.4,0.3,0.9,0.5,1.3c-0.2,0.2-0.3,0.4-0.5,0.6
			c-0.3,0.5-0.3,1.1,0.1,1.5l1,1c0.4,0.4,1.1,0.5,1.5,0.1c0.2-0.2,0.4-0.3,0.6-0.5c0.4,0.2,0.8,0.4,1.3,0.5c0,0.3,0.1,0.5,0.1,0.8
			c0.1,0.6,0.6,1,1.2,1h1.4c0.6,0,1.1-0.4,1.2-1c0-0.3,0.1-0.5,0.1-0.8c0.4-0.1,0.9-0.3,1.3-0.5c0.2,0.2,0.4,0.3,0.6,0.5
			c0.5,0.3,1.1,0.3,1.5-0.1l1-1c0.4-0.4,0.5-1.1,0.1-1.5c-0.2-0.2-0.3-0.4-0.5-0.6c0.2-0.4,0.4-0.8,0.5-1.3c0.3,0,0.5-0.1,0.8-0.1
			c0.6-0.1,1-0.6,1-1.2V7.7C33.1,7.1,32.6,6.6,32.1,6.5z M31.7,8.9C31.4,9,31.2,9,30.9,9c-0.5,0.1-0.9,0.4-1,0.8
			c-0.1,0.4-0.3,0.9-0.5,1.2c-0.2,0.4-0.2,0.9,0.1,1.3c0.1,0.2,0.3,0.4,0.4,0.6l-0.7,0.7c-0.2-0.1-0.4-0.3-0.6-0.4
			c-0.4-0.3-0.9-0.3-1.3-0.1c-0.4,0.2-0.8,0.4-1.2,0.5c-0.5,0.1-0.8,0.5-0.8,1c0,0.2-0.1,0.5-0.1,0.7h-1c0-0.2-0.1-0.5-0.1-0.7
			c-0.1-0.5-0.4-0.9-0.8-1c-0.4-0.1-0.9-0.3-1.2-0.5C21.5,13,21,13,20.7,13.3c-0.2,0.1-0.4,0.3-0.6,0.4L19.3,13
			c0.1-0.2,0.3-0.4,0.4-0.6c0.3-0.4,0.3-0.9,0.1-1.3c-0.2-0.4-0.4-0.8-0.5-1.2c-0.1-0.5-0.5-0.8-1-0.8c-0.2,0-0.5-0.1-0.7-0.1v-1
			c0.2,0,0.5-0.1,0.7-0.1c0.5-0.1,0.9-0.4,1-0.8c0.1-0.4,0.3-0.9,0.5-1.2c0.2-0.4,0.2-0.9-0.1-1.3c-0.1-0.2-0.3-0.4-0.4-0.6l0.7-0.7
			c0.2,0.1,0.4,0.3,0.6,0.4c0.4,0.3,0.9,0.3,1.3,0.1c0.4-0.2,0.8-0.4,1.2-0.5C23.6,3,24,2.6,24,2.1c0-0.2,0.1-0.5,0.1-0.7h1
			c0,0.2,0.1,0.5,0.1,0.7c0.1,0.5,0.4,0.9,0.8,1c0.4,0.1,0.9,0.3,1.2,0.5c0.4,0.2,0.9,0.2,1.3-0.1c0.2-0.1,0.4-0.3,0.6-0.4L30,3.8
			c-0.1,0.2-0.3,0.4-0.4,0.6c-0.3,0.4-0.3,0.9-0.1,1.3c0.2,0.4,0.4,0.8,0.5,1.2c0.1,0.5,0.5,0.8,1,0.8c0.2,0,0.5,0.1,0.7,0.1V8.9z"
			/>
		<path id="Shape_3_" class="st0" d="M24.7,5.4c-1.7,0-3,1.3-3,3c0,1.7,1.3,3,3,3c1.7,0,3-1.3,3-3C27.7,6.7,26.3,5.4,24.7,5.4z
			 M24.7,10.1c-0.9,0-1.7-0.7-1.7-1.7s0.7-1.7,1.7-1.7c0.9,0,1.7,0.7,1.7,1.7C26.3,9.3,25.6,10.1,24.7,10.1z"/>
	</g>
</g>
</svg>
