<?xml version="1.0" encoding="utf-8"?>
<!-- Generator: Adobe Illustrator 21.1.0, SVG Export Plug-In . SVG Version: 6.00 Build 0)  -->
<svg version="1.1" id="Layer_1" xmlns="http://www.w3.org/2000/svg" xmlns:xlink="http://www.w3.org/1999/xlink" x="0px" y="0px"
	 viewBox="0 0 26.5 29.5" style="enable-background:new 0 0 26.5 29.5;" xml:space="preserve">
<style type="text/css">
	.st0{fill:#1A1A1A;}
</style>
<title>Shipment Tracking Black</title>
<desc>Created with Sketch.</desc>
<g id="Web">
	<g id="Shipment-Tracking-Black">
		<path id="Shape" class="st0" d="M6.3,11.8c0,3,2.5,5.5,5.5,5.5s5.5-2.5,5.5-5.5s-2.5-5.5-5.5-5.5S6.3,8.8,6.3,11.8z M15,11.8
			c0,1.7-1.4,3.2-3.2,3.2c-1.7,0-3.2-1.4-3.2-3.2s1.4-3.2,3.2-3.2C13.5,8.6,15,10.1,15,11.8z M20.5,22.3c0,0.6-0.5,1.2-1.2,1.2
			c-0.6,0-1.2-0.5-1.2-1.2c0-0.6,0.5-1.2,1.2-1.2C20,21.1,20.5,21.6,20.5,22.3z M26.5,21.1h-1.8c-0.5-2.1-2.1-3.7-4.2-4.2v-1.8h-2.3
			v1.8c-2.1,0.5-3.7,2.1-4.2,4.2h-1.8v2.3H14c0.5,2.1,2.1,3.7,4.2,4.2v1.8h2.3v-1.8c2.1-0.5,3.7-2.1,4.2-4.2h1.8V21.1z M19.3,25.4
			c-1.7,0-3.2-1.4-3.2-3.2c0-1.7,1.4-3.2,3.2-3.2c1.7,0,3.2,1.4,3.2,3.2C22.5,24,21.1,25.4,19.3,25.4z M12.5,25.9
			c0.4,0.7,0.8,1.3,1.4,1.9c-0.8,0.7-1.3,1.1-1.3,1.1l-0.7,0.6l-0.7-0.6c-0.1-0.1-2.8-2.2-5.5-5.3C1.9,19.2,0,15.4,0,12.1v-0.3
			C0,5.3,5.3,0,11.8,0s11.8,5.3,11.8,11.8v0.3c0,0.2,0,0.4,0,0.7h-2.3c0-0.2,0-0.4,0-0.7v-0.3c0-5.2-4.3-9.5-9.5-9.5
			s-9.5,4.3-9.5,9.5v0.3c0,5.6,7.2,12.3,9.5,14.3C12,26.3,12.2,26.1,12.5,25.9z"/>
	</g>
</g>
</svg>
