<?xml version="1.0" encoding="utf-8"?>
<!-- Generator: Adobe Illustrator 21.1.0, SVG Export Plug-In . SVG Version: 6.00 Build 0)  -->
<svg version="1.1" id="Layer_1" xmlns="http://www.w3.org/2000/svg" xmlns:xlink="http://www.w3.org/1999/xlink" x="0px" y="0px"
	 viewBox="0 0 1021 167" style="enable-background:new 0 0 1021 167;" xml:space="preserve">
<style type="text/css">
	.st0{opacity:0.1;}
	.st1{fill:none;stroke:#26333B;stroke-width:3.6;}
	.st2{fill:#016799;}
	.st3{fill:#26333B;}
	.st4{fill:none;stroke:#26333B;stroke-width:2.4;}
	.st5{fill:none;stroke:#016799;stroke-width:2.4;}
	.st6{fill:none;stroke:#26333B;stroke-width:3;}
	.st7{fill:none;stroke:#26333B;stroke-width:3.2358;}
	.st8{fill:none;stroke:#26333B;stroke-width:1.305;stroke-linecap:round;stroke-linejoin:round;}
	.st9{fill:none;stroke:#26333B;stroke-width:1.416;stroke-linecap:round;stroke-linejoin:round;}
	.st10{fill:none;stroke:#26333B;stroke-width:2.157;}
	.st11{fill:none;stroke:#016799;stroke-width:3.2358;}
	.st12{fill:none;stroke:#016799;stroke-width:3.6;}
</style>
<title>Find a Route Image@1x</title>
<desc>Created with Sketch.</desc>
<g id="Final" class="st0">
	<g id="_x37_-Find-a-Route" transform="translate(-331.000000, -536.000000)">
		<g id="Find-a-Route-Image" transform="translate(331.000000, 536.000000)">
			<g id="Image" transform="translate(0.000000, 0.066441)">
				<path id="Stroke-75" class="st1" d="M393.5,155.2c0,2-1.7,3.7-3.7,3.7c-2,0-3.7-1.6-3.7-3.7s1.7-3.7,3.7-3.7
					C391.8,151.5,393.5,153.2,393.5,155.2z"/>
				<path id="Stroke-77" class="st1" d="M348.2,155.2c0,2-1.7,3.7-3.7,3.7c-2,0-3.7-1.6-3.7-3.7s1.7-3.7,3.7-3.7
					C346.5,151.5,348.2,153.2,348.2,155.2z"/>
				<path id="Stroke-79" class="st1" d="M327.9,155.2c0,2-1.7,3.7-3.7,3.7c-2,0-3.7-1.6-3.7-3.7s1.7-3.7,3.7-3.7
					C326.2,151.5,327.9,153.2,327.9,155.2z"/>
				<path id="Stroke-81" class="st1" d="M428.2,155.2c0,2-1.7,3.7-3.7,3.7c-2,0-3.7-1.6-3.7-3.7s1.7-3.7,3.7-3.7
					C426.6,151.5,428.2,153.2,428.2,155.2z"/>
				<path id="Stroke-83" class="st1" d="M519,155.2c0,2-1.7,3.7-3.7,3.7c-2,0-3.7-1.6-3.7-3.7s1.7-3.7,3.7-3.7
					C517.4,151.5,519,153.2,519,155.2z"/>
				<path id="Stroke-85" class="st1" d="M619.3,155.2c0,2-1.7,3.7-3.7,3.7c-2,0-3.7-1.6-3.7-3.7s1.7-3.7,3.7-3.7
					C617.7,151.5,619.3,153.2,619.3,155.2z"/>
				<path id="Stroke-87" class="st1" d="M841.5,155.2c0,2,1.6,3.7,3.7,3.7c2,0,3.7-1.6,3.7-3.7s-1.7-3.7-3.7-3.7
					C843.2,151.5,841.5,153.2,841.5,155.2z"/>
				<path id="Stroke-89" class="st1" d="M861.8,155.2c0,2,1.6,3.7,3.7,3.7c2,0,3.7-1.6,3.7-3.7s-1.7-3.7-3.7-3.7
					C863.5,151.5,861.8,153.2,861.8,155.2z"/>
				<path id="Stroke-91" class="st1" d="M1007.8,155.2c0,2,1.6,3.7,3.7,3.7c2,0,3.7-1.6,3.7-3.7s-1.7-3.7-3.7-3.7
					C1009.5,151.5,1007.8,153.2,1007.8,155.2z"/>
				<polygon id="Fill-93" class="st2" points="447.9,11.6 451.1,11.6 451.1,8.4 447.9,8.4 				"/>
				<polygon id="Fill-95" class="st3" points="521.6,86.7 524.8,86.7 524.8,83.5 521.6,83.5 				"/>
				<polygon id="Fill-96" class="st3" points="462.7,125.5 465.9,125.5 465.9,122.3 462.7,122.3 				"/>
				<polygon id="Fill-97" class="st3" points="510.6,139.7 513.8,139.7 513.8,136.5 510.6,136.5 				"/>
				<polygon id="Fill-98" class="st3" points="663.8,40 667,40 667,36.8 663.8,36.8 				"/>
				<polygon id="Fill-99" class="st2" points="570.6,40.5 573.8,40.5 573.8,37.3 570.6,37.3 				"/>
				<polygon id="Fill-100" class="st2" points="663.3,140.8 666.5,140.8 666.5,137.6 663.3,137.6 				"/>
				<polygon id="Fill-101" class="st3" points="589,90.4 592.2,90.4 592.2,87.2 589,87.2 				"/>
				<polygon id="Fill-102" class="st3" points="825.5,65.7 828.7,65.7 828.7,62.5 825.5,62.5 				"/>
				<polygon id="Fill-103" class="st2" points="924.4,24.7 927.7,24.7 927.7,21.5 924.4,21.5 				"/>
				<polygon id="Fill-104" class="st3" points="985.5,72 988.7,72 988.7,68.8 985.5,68.8 				"/>
				<polygon id="Fill-105" class="st2" points="736.5,55.2 739.7,55.2 739.7,52 736.5,52 				"/>
				<polygon id="Fill-106" class="st2" points="801.8,3.7 805,3.7 805,0.5 801.8,0.5 				"/>
				<polygon id="Fill-107" class="st3" points="873.9,109.8 877.1,109.8 877.1,106.6 873.9,106.6 				"/>
				<polygon id="Fill-108" class="st2" points="279.9,88.8 283.1,88.8 283.1,85.6 279.9,85.6 				"/>
				<polygon id="Fill-109" class="st2" points="192.1,132.4 195.3,132.4 195.3,129.2 192.1,129.2 				"/>
				<polygon id="Fill-110" class="st2" points="87.2,49.9 90.4,49.9 90.4,46.7 87.2,46.7 				"/>
				<polygon id="Fill-111" class="st2" points="154,72.5 157.2,72.5 157.2,69.3 154,69.3 				"/>
				<polygon id="Fill-112" class="st3" points="280,27.9 283.2,27.9 283.2,24.7 280,24.7 				"/>
				<polygon id="Fill-113" class="st3" points="214.7,67.8 217.9,67.8 217.9,64.6 214.7,64.6 				"/>
				<polygon id="Fill-114" class="st3" points="146.1,110.8 149.3,110.8 149.3,107.6 146.1,107.6 				"/>
				<polygon id="Fill-115" class="st3" points="64,94 67.2,94 67.2,90.8 64,90.8 				"/>
				<polygon id="Fill-116" class="st3" points="628,3.7 631.2,3.7 631.2,0.5 628,0.5 				"/>
				<polygon id="Fill-117" class="st3" points="393.7,45.2 396.9,45.2 396.9,42 393.7,42 				"/>
				<path id="Stroke-118" class="st4" d="M486.9,41.5l9.5,5.1l5.4,9.6l3-3.5l-2-7.9l25.5-25.4c0,0,2.6-6.1-4.2-4.3l-25.5,25.5
					l-8.3-2.2L486.9,41.5z"/>
				<polyline id="Stroke-119" class="st4" points="519.9,28.2 526.8,51.1 522.7,54.7 512.7,36 				"/>
				<polyline id="Stroke-120" class="st4" points="514.7,23.9 492.4,16.9 487.5,20.6 507,31.2 				"/>
				<path id="Stroke-121" class="st4" d="M500.4,43.3l-6.6,6.5"/>
				<path id="Stroke-122" class="st5" d="M491.8,54.6l-19.1,22.7"/>
				<path id="Stroke-123" class="st5" d="M494.1,58.3l-7,8.8"/>
				<polyline id="Stroke-124" class="st6" points="218.5,103.4 218.5,117.6 213,155.4 				"/>
				<polyline id="Stroke-125" class="st6" points="241.5,155.8 234.9,116.2 234.9,103.4 				"/>
				<path id="Stroke-126" class="st6" d="M250.8,156.2h-47.6"/>
				<path id="Stroke-127" class="st6" d="M240.8,155.5L217,132.8"/>
				<path id="Stroke-128" class="st6" d="M216.2,132.5h21.1"/>
				<path id="Stroke-129" class="st6" d="M237.2,131.9l-17.8-15.9"/>
				<path id="Stroke-130" class="st6" d="M217.2,132l17.7-15.8"/>
				<path id="Stroke-131" class="st6" d="M235,115.7l-17-13"/>
				<polyline id="Stroke-132" class="st6" points="206.4,107.1 206.4,102.5 264.7,102.5 264.7,114.4 251,123 				"/>
				<polyline id="Stroke-133" class="st6" points="244.2,102.4 244.2,97.7 235,91.8 218.7,91.8 218.7,101.9 				"/>
				<path id="Stroke-134" class="st6" d="M225.2,97.7h9.4"/>
				<path id="Stroke-135" class="st6" d="M235.4,102.8l-16.6,13.6"/>
				<path id="Stroke-136" class="st6" d="M237.3,133l-23.6,22.6"/>
				<path id="Stroke-137" class="st6" d="M218.5,115.9H234"/>
				<polygon id="Stroke-138" class="st6" points="251.7,138.7 276.5,138.7 276.5,122.6 251.7,122.6 				"/>
				<path id="Stroke-139" class="st6" d="M264.7,114.4l11.1,8.2"/>
				<path id="Stroke-140" class="st6" d="M270.3,126.6v8.6"/>
				<path id="Stroke-141" class="st6" d="M264.7,126.6v8.6"/>
				<path id="Stroke-142" class="st6" d="M259,126.6v8.6"/>
				<polyline id="Stroke-143" class="st7" points="105.9,154.4 115.2,126.3 105.9,126.3 102.3,129.9 29,129.9 36.2,154.5 				"/>
				<polyline id="Stroke-144" class="st7" points="42.2,130 46.6,119.2 61.6,119.2 64,129.3 				"/>
				<polyline id="Stroke-145" class="st7" points="50.5,118.2 50.5,110.2 57.6,110.2 57.6,118.1 				"/>
				<path id="Stroke-146" class="st7" d="M57.1,114.6h-5.8"/>
				<path id="Stroke-147" class="st8" d="M94.9,99.9c0,0,1.6-2.9,4.5-0.1c0,0,2.4-2.7,4.5,0.8"/>
				<path id="Stroke-148" class="st9" d="M0.7,96.6c0,0,1.3-2.4,3.6-0.1c0,0,2-2.2,3.6,0.7"/>
				<path id="Stroke-149" class="st8" d="M103.5,96.6c0,0,2.8-4.2,4.5,0c0,0,2.9-3.5,4.7,0"/>
				<path id="Stroke-150" class="st10" d="M114.6,150.8c-4.6,10.3-15.7-0.1-15.7-0.1c-6.7,9.8-12.7,0-12.7,0
					c-8.6,9.9-12.2-0.9-12.2-0.9c-9.1,10.3-16.8-0.3-16.8-0.3c-8.8,11.8-14.1-1-14.1-1s-5.8,14.4-16.3,1.5"/>
				<path id="Stroke-151" class="st10" d="M107.5,161.6c-8.8,9.3-13.7-1.9-13.7-1.9c-7.9,9.4-13.9-0.7-13.9-0.7
					c-10.2,12.9-16.8,1-16.8,1c-8.1,10.1-12.5,0-12.5,0c-7.2,8.6-13.2-1-13.2-1S29,173.4,17.1,155"/>
				<path id="Stroke-152" class="st11" d="M36.7,114.8H20.2"/>
				<path id="Stroke-153" class="st11" d="M42.9,108.1H30.7"/>
				<path id="Stroke-154" class="st11" d="M27.8,108.1h-3.5"/>
				<path id="Stroke-155" class="st6" d="M100.5,137.1H31.9"/>
				<g id="Group-2" transform="translate(73.013685, 65.137183)">
					<polyline id="Stroke-1" class="st11" points="0,64.4 0,56.9 23.5,56.9 23.5,64.1 					"/>
					<path id="Stroke-2" class="st11" d="M16.8,57.2v7"/>
					<path id="Stroke-3" class="st11" d="M8.4,57.2v6.3"/>
					<polyline id="Stroke-4" class="st11" points="4,55.9 4,49.2 19.2,49.2 19.2,56.2 					"/>
					<path id="Stroke-5" class="st11" d="M11.9,49.4v7"/>
					<polyline id="Stroke-6" class="st1" points="482.6,55.1 482.6,6 621.4,6 621.4,20.7 					"/>
					<path id="Stroke-7" class="st1" d="M483.7,42.5h129"/>
					<polyline id="Stroke-8" class="st1" points="209.6,90.1 234.9,90.1 234.9,47.3 					"/>
					<path id="Stroke-9" class="st1" d="M234.9,83.5h4.5"/>
					<path id="Stroke-10" class="st1" d="M268.6,6.3v50.4"/>
					<path id="Stroke-11" class="st1" d="M373.9,6.3v84.8"/>
					<path id="Stroke-12" class="st1" d="M373.9,51.2H269.1"/>
					<path id="Stroke-13" class="st1" d="M373.9,36H269.1"/>
					<path id="Stroke-14" class="st1" d="M373.9,20.7H269.1"/>
					<polygon id="Stroke-15" class="st12" points="341.5,13.9 355.5,13.9 355.5,0 341.5,0 					"/>
					<polygon id="Stroke-16" class="st1" points="323.3,83.2 337.3,83.2 337.3,69.3 323.3,69.3 					"/>
					<polygon id="Stroke-17" class="st12" points="918.1,83.2 932,83.2 932,69.3 918.1,69.3 					"/>
					<polygon id="Stroke-18" class="st12" points="874.6,90.3 888.6,90.3 888.6,76.4 874.6,76.4 					"/>
					<polygon id="Stroke-19" class="st12" points="840.4,90.3 854.3,90.3 854.3,76.4 840.4,76.4 					"/>
					<polygon id="Stroke-20" class="st12" points="281.2,13.9 295.2,13.9 295.2,0 281.2,0 					"/>
					<polygon id="Stroke-21" class="st12" points="214.1,83.2 228,83.2 228,69.3 214.1,69.3 					"/>
					<polygon id="Stroke-22" class="st12" points="343.9,83.2 353.6,83.2 353.6,73.5 343.9,73.5 					"/>
					<polyline id="Stroke-23" class="st12" points="247.5,89.8 241.7,89.8 241.7,77.9 268.7,77.9 268.6,70.4 281.4,70.4 281.4,89.8 
						275.9,89.8 					"/>
					<path id="Stroke-24" class="st12" d="M267.8,89.8h-12.9"/>
					<polyline id="Stroke-25" class="st12" points="278.1,70.4 278.1,57.4 254.5,57.4 244,77.5 					"/>
					<polyline id="Stroke-26" class="st12" points="299.3,62 316.8,62 316.8,86.4 					"/>
					<path id="Stroke-27" class="st12" d="M320.4,90.1h27.4"/>
					<path id="Stroke-28" class="st12" d="M355.2,90.1h4.7"/>
					<path id="Stroke-29" class="st1" d="M382.7,90h26.7"/>
					<polyline id="Stroke-30" class="st6" points="121.8,91 62.6,91 62.6,78.2 68.9,78.2 					"/>
					<path id="Stroke-31" class="st1" d="M425,90h13.7"/>
					<path id="Stroke-32" class="st1" d="M574.3,90h16.3"/>
					<polyline id="Stroke-33" class="st1" points="598.4,90 613.1,90 613.1,23.6 665.1,9.6 716.1,23.3 716.1,90 732.5,90 732.5,7.5 
											"/>
					<path id="Stroke-34" class="st1" d="M546.1,90h19.7"/>
					<path id="Stroke-35" class="st1" d="M446.4,90h92.8"/>
					<path id="Stroke-36" class="st1" d="M773.3,56.4V6.8"/>
					<path id="Stroke-37" class="st1" d="M732.8,21.2H773"/>
					<path id="Stroke-38" class="st1" d="M732.8,36.2H773"/>
					<path id="Stroke-39" class="st1" d="M732.8,51.3H773"/>
					<path id="Stroke-40" class="st1" d="M624,29.6h21.4"/>
					<path id="Stroke-41" class="st1" d="M653.8,29.6h21.4"/>
					<path id="Stroke-42" class="st1" d="M683.7,29.6h21.4"/>
					<polygon id="Stroke-43" class="st1" points="619.8,49.2 709.3,49.2 709.3,39.4 619.8,39.4 					"/>
					<polygon id="Stroke-44" class="st1" points="619.8,90.3 709.3,90.3 709.3,83.3 619.8,83.3 					"/>
					<path id="Stroke-45" class="st1" d="M703.3,49v34.3"/>
					<path id="Stroke-46" class="st1" d="M625.9,49v34.3"/>
					<path id="Stroke-47" class="st1" d="M626.3,55.5h76.5"/>
					<path id="Stroke-48" class="st1" d="M626.3,62.1h76.5"/>
					<path id="Stroke-49" class="st1" d="M626.3,68.8h76.5"/>
					<polyline id="Stroke-50" class="st1" points="802,83.3 822,83.3 822,15.8 					"/>
					<path id="Stroke-51" class="st1" d="M822.3,59.7H906"/>
					<polygon id="Stroke-52" class="st1" points="828.3,52.5 899.4,52.5 899.4,16.3 828.3,16.3 					"/>
					<path id="Stroke-53" class="st1" d="M835.8,20.8v27"/>
					<path id="Stroke-54" class="st1" d="M842.1,20.8v27"/>
					<path id="Stroke-55" class="st1" d="M848.5,20.8v27"/>
					<path id="Stroke-56" class="st1" d="M854.8,20.8v27"/>
					<path id="Stroke-57" class="st1" d="M861.1,20.8v27"/>
					<path id="Stroke-58" class="st1" d="M867.4,20.8v27"/>
					<path id="Stroke-59" class="st1" d="M873.7,20.8v27"/>
					<path id="Stroke-60" class="st1" d="M880.1,20.8v27"/>
					<path id="Stroke-61" class="st1" d="M886.4,20.8v27"/>
					<path id="Stroke-62" class="st1" d="M892.7,20.8v27"/>
					<path id="Stroke-63" class="st12" d="M906.7,90.1h28.1"/>
					<polyline id="Stroke-64" class="st12" points="938.3,85.2 938.3,48.7 947.5,48.7 					"/>
					<polygon id="Stroke-66" class="st12" points="426.8,83.2 522.9,83.2 522.9,55.1 426.8,55.1 					"/>
					<path id="Stroke-67" class="st1" d="M426.4,62h-13.7"/>
					<path id="Stroke-68" class="st1" d="M426.4,75.4h-19.5"/>
					<path id="Stroke-69" class="st1" d="M426.5,68.6h-10.9"/>
					<polyline id="Stroke-70" class="st1" points="529.9,88.9 529.9,61.6 551,61.6 558.7,77.2 558.7,88.9 					"/>
					<path id="Stroke-71" class="st1" d="M558.2,78.1h-27.7"/>
					<polyline id="Stroke-72" class="st12" points="796.2,89.8 802,89.8 802,77.9 774.9,77.9 775.1,70.4 762.3,70.4 762.3,89.8 
						767.7,89.8 					"/>
					<path id="Stroke-73" class="st12" d="M775.9,89.8h12.9"/>
					<polyline id="Stroke-74" class="st12" points="765.6,70.4 765.6,57.4 789.1,57.4 799.7,77.5 					"/>
				</g>
			</g>
		</g>
	</g>
</g>
</svg>
