<?xml version="1.0" encoding="utf-8"?>
<!-- Generator: Adobe Illustrator 21.1.0, SVG Export Plug-In . SVG Version: 6.00 Build 0)  -->
<svg version="1.1" id="Layer_1" xmlns="http://www.w3.org/2000/svg" xmlns:xlink="http://www.w3.org/1999/xlink" x="0px" y="0px"
	 viewBox="0 0 216.7 165.2" style="enable-background:new 0 0 216.7 165.2;" xml:space="preserve">
<style type="text/css">
	.st0{fill:#FFFFFF;}
</style>
<g>
	<g>
		<g>
			<path class="st0" d="M47.5,94.9c-2.1,0-4.2-0.8-5.8-2.4L2.4,53.2c-3.2-3.2-3.2-8.4,0-11.5L41.7,2.4c3.2-3.2,8.4-3.2,11.5,0
				c3.2,3.2,3.2,8.4,0,11.5L19.7,47.4L53.2,81c3.2,3.2,3.2,8.4,0,11.5C51.6,94.1,49.5,94.9,47.5,94.9z"/>
			<path class="st0" d="M208.5,55.6H8.2C3.7,55.6,0,52,0,47.4s3.7-8.2,8.2-8.2h200.3c4.5,0,8.2,3.6,8.2,8.2S213,55.6,208.5,55.6z"/>
		</g>
		<g>
			<path class="st0" d="M169.2,165.2c-2.1,0-4.2-0.8-5.8-2.4c-3.2-3.2-3.2-8.3,0-11.5l33.5-33.5l-33.5-33.5c-3.2-3.2-3.2-8.4,0-11.5
				s8.3-3.2,11.5,0l39.3,39.3c3.2,3.2,3.2,8.3,0,11.5L175,162.8C173.4,164.4,171.3,165.2,169.2,165.2z"/>
			<path class="st0" d="M208.5,125.9H8.2c-4.5,0-8.2-3.6-8.2-8.2c0-4.5,3.7-8.2,8.2-8.2h200.3c4.5,0,8.2,3.7,8.2,8.2
				C216.7,122.3,213,125.9,208.5,125.9z"/>
		</g>
	</g>
</g>
</svg>
