<?xml version="1.0" encoding="utf-8"?>
<!-- Generator: Adobe Illustrator 21.1.0, SVG Export Plug-In . SVG Version: 6.00 Build 0)  -->
<svg version="1.1" id="Layer_1" xmlns="http://www.w3.org/2000/svg" xmlns:xlink="http://www.w3.org/1999/xlink" x="0px" y="0px"
	 viewBox="0 0 9.6 3.5" style="enable-background:new 0 0 9.6 3.5;" xml:space="preserve">
<title>tiny-arrow</title>
<g id="Layer_2">
	<g id="Layer_1-2">
		<polygon points="7.9,0 7.5,0.4 8.6,1.5 0,1.5 0,2 8.6,2 7.5,3.1 7.9,3.5 9.6,1.8 		"/>
	</g>
</g>
</svg>
