<svg xmlns="http://www.w3.org/2000/svg" width="15" height="15" viewBox="0 0 15 15">
  <g id="map" transform="translate(-2 -2)">
    <path id="Path_6388" data-name="Path 6388" d="M12.277,13.786,9.015,9.179a4.317,4.317,0,1,1,7.548-2.823A4.393,4.393,0,0,1,15.6,9.1Zm0-10.714A3.252,3.252,0,0,0,9.063,6.355a3.316,3.316,0,0,0,.8,2.143l2.416,3.423,2.48-3.493a3.343,3.343,0,0,0,.734-2.073,3.252,3.252,0,0,0-3.214-3.284Z" transform="translate(-2.777)" fill="#fff"/>
    <circle id="Ellipse_61" data-name="Ellipse 61" cx="1.5" cy="1.5" r="1.5" transform="translate(8 4)" fill="#fff"/>
    <path id="Path_6389" data-name="Path 6389" d="M15.929,12H14.857v1.071h1.071v7.5H3.071v-7.5H4.143V12H3.071A1.071,1.071,0,0,0,2,13.071v7.5a1.071,1.071,0,0,0,1.071,1.071H15.929A1.071,1.071,0,0,0,17,20.571v-7.5A1.071,1.071,0,0,0,15.929,12Z" transform="translate(0 -4.643)" fill="#fff"/>
  </g>
</svg>
